Exploring the BRFSS data
…
Research quesion 3: Are there any association of education level to the income between male and female?

Part 3: Exploratory data analysis

NOTE: Insert code chunks as needed by clicking on the Insert a new code chunk button (green button with orange arrow) above. Make sure that your code is visible in the project you submit. Delete this note when before you submit your work.

Research quesion 1: How does the smoking behavor impact length of sleep for both males and females?

aa<-select(brfss2013,sleptim1,smokday2,sex)%>%filter(!is.na(sleptim1),!is.na(smokday2),!is.na(sex))

Select target parameters for summary

aa%>%group_by(sleptim1,smokday2,sex)%>%summarize(count=n())

## # A tibble: 128 x 4
## # Groups:   sleptim1, smokday2 [68]
##    sleptim1 smokday2   sex    count
##       <int> <fct>      <fct>  <int>
##  1        1 Every day  Male      19
##  2        1 Every day  Female    26
##  3        1 Some days  Male       9
##  4        1 Some days  Female    11
##  5        1 Not at all Male      21
##  6        1 Not at all Female    18
##  7        2 Every day  Male     152
##  8        2 Every day  Female   134
##  9        2 Some days  Male      48
## 10        2 Some days  Female    56
## # ... with 118 more rows
…
The distribution is shown as follow

 summarise(group_by(bb,X_state), count=n(), per_col=count/nrow(bb)*100)

## # A tibble: 53 x 3
##    X_state              count per_col
##    <fct>                <int>   <dbl>
##  1 Alabama               6373   1.32 
##  2 Alaska                4508   0.932
##  3 Arizona               4175   0.863
##  4 Arkansas              5145   1.06 
##  5 California           11444   2.37 
##  6 Colorado             13382   2.77 
##  7 Connecticut           7649   1.58 
##  8 Delaware              5141   1.06 
##  9 District of Columbia  4877   1.01 
## 10 Florida              33127   6.85 
## # ... with 43 more rows
…
To sum up, invesigate frequency by states and whether covered by insurances

#People with insurence
summarize(group_by(bb,hlthpln1,checkup1,X_state)%>%filter(hlthpln1 == "Yes"),count=n(),per_col= count/nrow(bb)*100)%>%arrange(desc(per_col))

## # A tibble: 265 x 5
## # Groups:   hlthpln1, checkup1 [5]
##    hlthpln1 checkup1         X_state       count per_col
##    <fct>    <fct>            <fct>         <int>   <dbl>
##  1 Yes      Within past year Florida       23480    4.85
##  2 Yes      Within past year Kansas        16018    3.31
##  3 Yes      Within past year Massachusetts 11853    2.45
##  4 Yes      Within past year Nebraska      10585    2.19
##  5 Yes      Within past year Minnesota      9973    2.06
##  6 Yes      Within past year Maryland       9919    2.05
##  7 Yes      Within past year New Jersey     9601    1.98
##  8 Yes      Within past year Michigan       8814    1.82
##  9 Yes      Within past year Ohio           8310    1.72
## 10 Yes      Within past year Colorado       8239    1.70
## # ... with 255 more rows

#People without insurence
summarize(group_by(bb,hlthpln1,checkup1,X_state)%>%filter(hlthpln1 == "No"),count=n(),per_col= count/nrow(bb)*100)%>%arrange(desc(per_col))

## # A tibble: 265 x 5
## # Groups:   hlthpln1, checkup1 [5]
##    hlthpln1 checkup1            X_state        count per_col
##    <fct>    <fct>               <fct>          <int>   <dbl>
##  1 No       Within past year    Florida         2076   0.429
##  2 No       Within past year    Kansas          1153   0.238
##  3 No       5 or more years ago Florida         1110   0.229
##  4 No       Within past year    Texas            983   0.203
##  5 No       Within past year    New Jersey       834   0.172
##  6 No       Within past 2 years Florida          779   0.161
##  7 No       Within past 5 years Florida          701   0.145
##  8 No       Within past year    Georgia          668   0.138
##  9 No       Within past year    North Carolina   622   0.129
## 10 No       Within past year    Kentucky         608   0.126
## # ... with 255 more rows

According to the BRFSS 2013 survey, there are 88.79% participants had insurance plan while 11.21% not. for the past year, Florida has both highest count of people that have/not have insurance and did routine checkup. The percentage are 4.85% and 0.429% repectively.

Research quesion 3: The purpose of this research is to investigate the association of education level to the income between male and female.

The first step is to locate three parameters are investigated are educa,income2,sex.The whole data frame brfss2013is renamed to cc and trimed using !is.na to eliminateNAobservations.

cc<-select(brfss2013,educa,income2,sex)%>%filter(!is.na(educa),!is.na(income2),!is.na(sex))

The new trimed data frame with valid counts can be summarized as follow

cc%>% group_by(educa,income2,sex)%>%summarize(count=n())

## # A tibble: 96 x 4
## # Groups:   educa, income2 [48]
##    educa                                      income2           sex    count
##    <fct>                                      <fct>             <fct>  <int>
##  1 Never attended school or only kindergarten Less than $10,000 Male      32
##  2 Never attended school or only kindergarten Less than $10,000 Female    89
##  3 Never attended school or only kindergarten Less than $15,000 Male      39
##  4 Never attended school or only kindergarten Less than $15,000 Female    34
##  5 Never attended school or only kindergarten Less than $20,000 Male      44
##  6 Never attended school or only kindergarten Less than $20,000 Female    34
##  7 Never attended school or only kindergarten Less than $25,000 Male      30
##  8 Never attended school or only kindergarten Less than $25,000 Female    20
##  9 Never attended school or only kindergarten Less than $35,000 Male      24
## 10 Never attended school or only kindergarten Less than $35,000 Female    28
## # ... with 86 more rows
…
